<svg width="37" height="30" viewBox="0 0 37 30" fill="none" xmlns="http://www.w3.org/2000/svg">
<path d="M35.4583 26.1184H1.54167C0.690667 26.1184 0 26.7822 0 27.6C0 28.4179 0.690667 29.0817 1.54167 29.0817H35.4583C36.3093 29.0817 37 28.4179 37 27.6C37 26.7822 36.3093 26.1184 35.4583 26.1184Z" fill="black"/>
<path d="M35.5 0.436768H14.5C13.672 0.436768 13 1.10054 13 1.9184C13 2.73626 13.672 3.40003 14.5 3.40003H35.5C36.328 3.40003 37 2.73626 37 1.9184C37 1.10054 36.328 0.436768 35.5 0.436768Z" fill="black"/>
<path d="M35.4583 9.32666H1.54167C0.690667 9.32666 0 9.99043 0 10.8083C0 11.6262 0.690667 12.2899 1.54167 12.2899H35.4583C36.3093 12.2899 37 11.6262 37 10.8083C37 9.99043 36.3093 9.32666 35.4583 9.32666Z" fill="black"/>
<path d="M35.5 18.2163H14.5C13.672 18.2163 13 18.8801 13 19.6979C13 20.5158 13.672 21.1796 14.5 21.1796H35.5C36.328 21.1796 37 20.5158 37 19.6979C37 18.8801 36.328 18.2163 35.5 18.2163Z" fill="black"/>
</svg>
